Risk factors in accidental drug related deaths.
…
           N = "")
project_1$Fentanyl<-fct_recode(project_1$Fentanyl, 
           Y = "Y1")
project_1$Oxycodone<-fct_recode(project_1$Oxycodone, 
           Y = "y",
           N = "")
project_1$Oxymorphone<-fct_recode(project_1$Oxymorphone, 
           Y = "y",
           N = "")
project_1$Alcohol<-fct_recode(project_1$Alcohol, 
           Y = "y",
           N = "")
project_1

# A tibble: 999 x 13
   CaseNumber       Date    Sex            Race   Age  Death_City
        <chr>      <chr>  <chr>           <chr> <int>       <chr>
 1   13-16336  11/9/2013 Female           White    53      GROTON
 2   12-18447 12/29/2012   Male           White    30   WATERBURY
 3    14-2758  2/18/2014   Male           White    43     ENFIELD
 4   14-13497   9/7/2014 Female           White    24 WALLINGFORD
 5   13-14421  10/4/2013 Female           White    26  WEST HAVEN
 6   13-18018 12/10/2013 Female           White    45     DANBURY
 7   13-19004 12/27/2013   Male           White    55  BRIDGEPORT
 8    13-3783   3/4/2013   Male Hispanic, White    47   NEW HAVEN
 9    14-5669   4/9/2014 Female           White    53     DANBURY
10    13-9675  6/28/2013   Male           White    29   WATERBURY
# ... with 989 more rows, and 7 more variables: Location <chr>,
#   Heroin <fctr>, Cocaine <fctr>, Fentanyl <fctr>, Oxycodone <fctr>,
#   Oxymorphone <fctr>, Alcohol <fctr>

project_1$Location<-fct_recode(project_1$Location)
project_1$Death_City<-fct_recode(project_1$Death_City)
project_1$Race<-fct_recode(project_1$Race, 
           Black = "Hispanic, Black")
          project_1$Sex<-fct_recode(project_1$Sex)
project_1

# A tibble: 999 x 13
   CaseNumber       Date    Sex            Race   Age  Death_City
        <chr>      <chr> <fctr>          <fctr> <int>      <fctr>
 1   13-16336  11/9/2013 Female           White    53      GROTON
 2   12-18447 12/29/2012   Male           White    30   WATERBURY
 3    14-2758  2/18/2014   Male           White    43     ENFIELD
 4   14-13497   9/7/2014 Female           White    24 WALLINGFORD
 5   13-14421  10/4/2013 Female           White    26  WEST HAVEN
 6   13-18018 12/10/2013 Female           White    45     DANBURY
 7   13-19004 12/27/2013   Male           White    55  BRIDGEPORT
 8    13-3783   3/4/2013   Male Hispanic, White    47   NEW HAVEN
 9    14-5669   4/9/2014 Female           White    53     DANBURY
10    13-9675  6/28/2013   Male           White    29   WATERBURY
# ... with 989 more rows, and 7 more variables: Location <fctr>,
#   Heroin <fctr>, Cocaine <fctr>, Fentanyl <fctr>, Oxycodone <fctr>,
#   Oxymorphone <fctr>, Alcohol <fctr>
…
map_df(project_1, function(x) sum(is.na(x)))

# A tibble: 1 x 13
  CaseNumber  Date   Sex  Race   Age Death_City Location Heroin Cocaine
       <int> <int> <int> <int> <int>      <int>    <int>  <int>   <int>
1          0     0     0     0     0          1        2      0       0
# ... with 4 more variables: Fentanyl <int>, Oxycodone <int>,
#   Oxymorphone <int>, Alcohol <int>

There are total of 13 variables (columns) in the dataset with 999 (rows) observations (rows). There is 1 observation missing the variable death city and 2 missing death locations. These variables are not likely to truly impact my analyses, as I do not plan to undertake an anlaysis based on geographic location. Therefore, to finalize the variables and simplify the dataset, the variables Location and Death_City were deleted from the dataset.

project_1F <- subset( project_1, select = -c(Location, Death_City ) )
project_1F

# A tibble: 999 x 11
   CaseNumber       Date    Sex            Race   Age Heroin Cocaine
        <chr>      <chr> <fctr>          <fctr> <int> <fctr>  <fctr>
 1   13-16336  11/9/2013 Female           White    53      N       N
 2   12-18447 12/29/2012   Male           White    30      N       Y
 3    14-2758  2/18/2014   Male           White    43      N       N
 4   14-13497   9/7/2014 Female           White    24      Y       N
 5   13-14421  10/4/2013 Female           White    26      Y       N
 6   13-18018 12/10/2013 Female           White    45      Y       N
 7   13-19004 12/27/2013   Male           White    55      Y       N
 8    13-3783   3/4/2013   Male Hispanic, White    47      Y       Y
 9    14-5669   4/9/2014 Female           White    53      N       Y
10    13-9675  6/28/2013   Male           White    29      Y       N
# ... with 989 more rows, and 4 more variables: Fentanyl <fctr>,
#   Oxycodone <fctr>, Oxymorphone <fctr>, Alcohol <fctr>

project_1F <- project_1F %>%
    mutate(
        Race2 = factor(case_when(
            Race == "White" ~ "1",
            Race ==" White"~"1",
            Race == "Hispanic, White" ~ "2",
            Race == " Hispanic, White" ~ "2",
            Race == "Black" ~ "3",
            Race == "Asian,other,unknown" ~ "4")))
project_1F

# A tibble: 999 x 12
   CaseNumber       Date    Sex            Race   Age Heroin Cocaine
        <chr>      <chr> <fctr>          <fctr> <int> <fctr>  <fctr>
 1   13-16336  11/9/2013 Female           White    53      N       N
 2   12-18447 12/29/2012   Male           White    30      N       Y
 3    14-2758  2/18/2014   Male           White    43      N       N
 4   14-13497   9/7/2014 Female           White    24      Y       N
 5   13-14421  10/4/2013 Female           White    26      Y       N
 6   13-18018 12/10/2013 Female           White    45      Y       N
 7   13-19004 12/27/2013   Male           White    55      Y       N
 8    13-3783   3/4/2013   Male Hispanic, White    47      Y       Y
 9    14-5669   4/9/2014 Female           White    53      N       Y
10    13-9675  6/28/2013   Male           White    29      Y       N
# ... with 989 more rows, and 5 more variables: Fentanyl <fctr>,
#   Oxycodone <fctr>, Oxymorphone <fctr>, Alcohol <fctr>, Race2 <fctr>
…
project_1F_New <- project_1F_New %>%
    mutate(
        Oxymorphone = factor(case_when(
            Oxymorphone == "Y" ~ "1",
            Oxymorphone =="N"~"0")))

project_1F_New <- project_1F_New %>%
    mutate(
        Cocaine = factor(case_when(
            Cocaine == "Y" ~ "1",
            Cocaine =="N"~"0")))
project_1F_New 

# A tibble: 999 x 12
   CaseNumber       Date    Sex            Race   Age Heroin Cocaine
        <chr>      <chr> <fctr>          <fctr> <int> <fctr>  <fctr>
 1   13-16336  11/9/2013 Female           White    53      0       0
 2   12-18447 12/29/2012   Male           White    30      0       1
 3    14-2758  2/18/2014   Male           White    43      0       0
 4   14-13497   9/7/2014 Female           White    24      1       0
 5   13-14421  10/4/2013 Female           White    26      1       0
 6   13-18018 12/10/2013 Female           White    45      1       0
 7   13-19004 12/27/2013   Male           White    55      1       0
 8    13-3783   3/4/2013   Male Hispanic, White    47      1       1
 9    14-5669   4/9/2014 Female           White    53      0       1
10    13-9675  6/28/2013   Male           White    29      1       0
# ... with 989 more rows, and 5 more variables: Fentanyl <fctr>,
#   Oxycodone <fctr>, Oxymorphone <fctr>, Alcohol <fctr>, Race2 <fctr>
…
